G04 #@! TF.GenerationSoftware,KiCad,Pcbnew,(5.1.5-0-10_14)*
G04 #@! TF.CreationDate,2020-05-25T11:32:10+02:00*
G04 #@! TF.ProjectId,BarduinoStepperBoard,42617264-7569-46e6-9f53-746570706572,rev?*
G04 #@! TF.SameCoordinates,Original*
G04 #@! TF.FileFunction,Copper,L1,Top*
G04 #@! TF.FilePolarity,Positive*
%FSLAX46Y46*%
G04 Gerber Fmt 4.6, Leading zero omitted, Abs format (unit mm)*
G04 Created by KiCad (PCBNEW (5.1.5-0-10_14)) date 2020-05-25 11:32:10*
%MOMM*%
%LPD*%
G04 APERTURE LIST*
%ADD10R,1.270000X1.905000*%
%ADD11R,1.198880X0.998220*%
%ADD12R,1.905000X1.270000*%
%ADD13R,5.397500X6.197600*%
%ADD14R,0.998220X1.597660*%
%ADD15C,0.100000*%
%ADD16O,1.600000X1.600000*%
%ADD17R,1.600000X1.600000*%
%ADD18O,1.524000X3.048000*%
%ADD19O,3.048000X1.524000*%
%ADD20R,1.270000X2.540000*%
%ADD21R,1.524000X3.000000*%
%ADD22R,3.000000X1.524000*%
%ADD23R,2.540000X1.270000*%
%ADD24O,4.000000X1.800000*%
%ADD25O,1.800000X4.000000*%
%ADD26R,1.800000X4.400000*%
%ADD27R,2.200000X2.200000*%
%ADD28O,2.200000X2.200000*%
%ADD29R,0.300000X1.600000*%
%ADD30C,0.800000*%
%ADD31C,0.800000*%
%ADD32C,0.400000*%
%ADD33C,0.300000*%
%ADD34C,0.200000*%
G04 APERTURE END LIST*
D10*
X95859000Y-81200000D03*
X99161000Y-81200000D03*
X99161000Y-78050000D03*
X95859000Y-78050000D03*
D11*
X98768700Y-72389360D03*
X98768700Y-69890000D03*
X98768700Y-67390640D03*
D12*
X150680000Y-76641000D03*
X150680000Y-73339000D03*
D13*
X173430000Y-75570000D03*
D14*
X171151620Y-68272580D03*
X175708380Y-68272580D03*
G04 #@! TA.AperFunction,ComponentPad*
D15*
G36*
X165022000Y-99650000D02*
G01*
X167562000Y-99650000D01*
X167562000Y-101174000D01*
X165022000Y-101174000D01*
X165022000Y-99650000D01*
G37*
G04 #@! TD.AperFunction*
G04 #@! TA.AperFunction,ComponentPad*
G36*
X165022000Y-97110000D02*
G01*
X167562000Y-97110000D01*
X167562000Y-98634000D01*
X165022000Y-98634000D01*
X165022000Y-97110000D01*
G37*
G04 #@! TD.AperFunction*
G04 #@! TA.AperFunction,ComponentPad*
G36*
X165022000Y-89490000D02*
G01*
X167562000Y-89490000D01*
X167562000Y-91014000D01*
X165022000Y-91014000D01*
X165022000Y-89490000D01*
G37*
G04 #@! TD.AperFunction*
G04 #@! TA.AperFunction,ComponentPad*
G36*
X165022000Y-86950000D02*
G01*
X167562000Y-86950000D01*
X167562000Y-88474000D01*
X165022000Y-88474000D01*
X165022000Y-86950000D01*
G37*
G04 #@! TD.AperFunction*
G04 #@! TA.AperFunction,ComponentPad*
G36*
X146480000Y-99650000D02*
G01*
X149020000Y-99650000D01*
X149020000Y-101174000D01*
X146480000Y-101174000D01*
X146480000Y-99650000D01*
G37*
G04 #@! TD.AperFunction*
G04 #@! TA.AperFunction,ComponentPad*
G36*
X146480000Y-97110000D02*
G01*
X149020000Y-97110000D01*
X149020000Y-98634000D01*
X146480000Y-98634000D01*
X146480000Y-97110000D01*
G37*
G04 #@! TD.AperFunction*
G04 #@! TA.AperFunction,ComponentPad*
G36*
X146480000Y-89490000D02*
G01*
X149020000Y-89490000D01*
X149020000Y-91014000D01*
X146480000Y-91014000D01*
X146480000Y-89490000D01*
G37*
G04 #@! TD.AperFunction*
G04 #@! TA.AperFunction,ComponentPad*
G36*
X146480000Y-86950000D02*
G01*
X149020000Y-86950000D01*
X149020000Y-88474000D01*
X146480000Y-88474000D01*
X146480000Y-86950000D01*
G37*
G04 #@! TD.AperFunction*
G04 #@! TA.AperFunction,ComponentPad*
G36*
X154652000Y-67720000D02*
G01*
X154652000Y-70260000D01*
X153128000Y-70260000D01*
X153128000Y-67720000D01*
X154652000Y-67720000D01*
G37*
G04 #@! TD.AperFunction*
G04 #@! TA.AperFunction,ComponentPad*
G36*
X154652000Y-80420000D02*
G01*
X154652000Y-82960000D01*
X153128000Y-82960000D01*
X153128000Y-80420000D01*
X154652000Y-80420000D01*
G37*
G04 #@! TD.AperFunction*
G04 #@! TA.AperFunction,ComponentPad*
G36*
X152112000Y-67720000D02*
G01*
X152112000Y-70260000D01*
X150588000Y-70260000D01*
X150588000Y-67720000D01*
X152112000Y-67720000D01*
G37*
G04 #@! TD.AperFunction*
G04 #@! TA.AperFunction,ComponentPad*
G36*
X149572000Y-67720000D02*
G01*
X149572000Y-70260000D01*
X148048000Y-70260000D01*
X148048000Y-67720000D01*
X149572000Y-67720000D01*
G37*
G04 #@! TD.AperFunction*
G04 #@! TA.AperFunction,ComponentPad*
G36*
X147032000Y-67720000D02*
G01*
X147032000Y-70260000D01*
X145508000Y-70260000D01*
X145508000Y-67720000D01*
X147032000Y-67720000D01*
G37*
G04 #@! TD.AperFunction*
G04 #@! TA.AperFunction,ComponentPad*
G36*
X144492000Y-67720000D02*
G01*
X144492000Y-70260000D01*
X142968000Y-70260000D01*
X142968000Y-67720000D01*
X144492000Y-67720000D01*
G37*
G04 #@! TD.AperFunction*
G04 #@! TA.AperFunction,ComponentPad*
G36*
X152112000Y-80420000D02*
G01*
X152112000Y-82960000D01*
X150588000Y-82960000D01*
X150588000Y-80420000D01*
X152112000Y-80420000D01*
G37*
G04 #@! TD.AperFunction*
G04 #@! TA.AperFunction,ComponentPad*
G36*
X149572000Y-80420000D02*
G01*
X149572000Y-82960000D01*
X148048000Y-82960000D01*
X148048000Y-80420000D01*
X149572000Y-80420000D01*
G37*
G04 #@! TD.AperFunction*
G04 #@! TA.AperFunction,ComponentPad*
G36*
X147032000Y-80420000D02*
G01*
X147032000Y-82960000D01*
X145508000Y-82960000D01*
X145508000Y-80420000D01*
X147032000Y-80420000D01*
G37*
G04 #@! TD.AperFunction*
G04 #@! TA.AperFunction,ComponentPad*
G36*
X144492000Y-80420000D02*
G01*
X144492000Y-82960000D01*
X142968000Y-82960000D01*
X142968000Y-80420000D01*
X144492000Y-80420000D01*
G37*
G04 #@! TD.AperFunction*
D16*
X154800000Y-107000000D03*
X172580000Y-119700000D03*
X157340000Y-107000000D03*
X170040000Y-119700000D03*
X159880000Y-107000000D03*
X167500000Y-119700000D03*
X162420000Y-107000000D03*
X164960000Y-119700000D03*
X164960000Y-107000000D03*
X162420000Y-119700000D03*
X167500000Y-107000000D03*
X159880000Y-119700000D03*
X170040000Y-107000000D03*
X157340000Y-119700000D03*
X172580000Y-107000000D03*
D17*
X154800000Y-119700000D03*
D16*
X130730000Y-107000000D03*
X148510000Y-119700000D03*
X133270000Y-107000000D03*
X145970000Y-119700000D03*
X135810000Y-107000000D03*
X143430000Y-119700000D03*
X138350000Y-107000000D03*
X140890000Y-119700000D03*
X140890000Y-107000000D03*
X138350000Y-119700000D03*
X143430000Y-107000000D03*
X135810000Y-119700000D03*
X145970000Y-107000000D03*
X133270000Y-119700000D03*
X148510000Y-107000000D03*
D17*
X130730000Y-119700000D03*
D16*
X103400000Y-106930000D03*
X121180000Y-119630000D03*
X105940000Y-106930000D03*
X118640000Y-119630000D03*
X108480000Y-106930000D03*
X116100000Y-119630000D03*
X111020000Y-106930000D03*
X113560000Y-119630000D03*
X113560000Y-106930000D03*
X111020000Y-119630000D03*
X116100000Y-106930000D03*
X108480000Y-119630000D03*
X118640000Y-106930000D03*
X105940000Y-119630000D03*
X121180000Y-106930000D03*
D17*
X103400000Y-119630000D03*
G04 #@! TA.AperFunction,SMDPad,CuDef*
D15*
G36*
X162849504Y-112401204D02*
G01*
X162873773Y-112404804D01*
X162897571Y-112410765D01*
X162920671Y-112419030D01*
X162942849Y-112429520D01*
X162963893Y-112442133D01*
X162983598Y-112456747D01*
X163001777Y-112473223D01*
X163018253Y-112491402D01*
X163032867Y-112511107D01*
X163045480Y-112532151D01*
X163055970Y-112554329D01*
X163064235Y-112577429D01*
X163070196Y-112601227D01*
X163073796Y-112625496D01*
X163075000Y-112650000D01*
X163075000Y-113750000D01*
X163073796Y-113774504D01*
X163070196Y-113798773D01*
X163064235Y-113822571D01*
X163055970Y-113845671D01*
X163045480Y-113867849D01*
X163032867Y-113888893D01*
X163018253Y-113908598D01*
X163001777Y-113926777D01*
X162983598Y-113943253D01*
X162963893Y-113957867D01*
X162942849Y-113970480D01*
X162920671Y-113980970D01*
X162897571Y-113989235D01*
X162873773Y-113995196D01*
X162849504Y-113998796D01*
X162825000Y-114000000D01*
X159400000Y-114000000D01*
X159375496Y-113998796D01*
X159351227Y-113995196D01*
X159327429Y-113989235D01*
X159304329Y-113980970D01*
X159282151Y-113970480D01*
X159261107Y-113957867D01*
X159241402Y-113943253D01*
X159223223Y-113926777D01*
X159206747Y-113908598D01*
X159192133Y-113888893D01*
X159179520Y-113867849D01*
X159169030Y-113845671D01*
X159160765Y-113822571D01*
X159154804Y-113798773D01*
X159151204Y-113774504D01*
X159150000Y-113750000D01*
X159150000Y-112650000D01*
X159151204Y-112625496D01*
X159154804Y-112601227D01*
X159160765Y-112577429D01*
X159169030Y-112554329D01*
X159179520Y-112532151D01*
X159192133Y-112511107D01*
X159206747Y-112491402D01*
X159223223Y-112473223D01*
X159241402Y-112456747D01*
X159261107Y-112442133D01*
X159282151Y-112429520D01*
X159304329Y-112419030D01*
X159327429Y-112410765D01*
X159351227Y-112404804D01*
X159375496Y-112401204D01*
X159400000Y-112400000D01*
X162825000Y-112400000D01*
X162849504Y-112401204D01*
G37*
G04 #@! TD.AperFunction*
G04 #@! TA.AperFunction,SMDPad,CuDef*
G36*
X169024504Y-112401204D02*
G01*
X169048773Y-112404804D01*
X169072571Y-112410765D01*
X169095671Y-112419030D01*
X169117849Y-112429520D01*
X169138893Y-112442133D01*
X169158598Y-112456747D01*
X169176777Y-112473223D01*
X169193253Y-112491402D01*
X169207867Y-112511107D01*
X169220480Y-112532151D01*
X169230970Y-112554329D01*
X169239235Y-112577429D01*
X169245196Y-112601227D01*
X169248796Y-112625496D01*
X169250000Y-112650000D01*
X169250000Y-113750000D01*
X169248796Y-113774504D01*
X169245196Y-113798773D01*
X169239235Y-113822571D01*
X169230970Y-113845671D01*
X169220480Y-113867849D01*
X169207867Y-113888893D01*
X169193253Y-113908598D01*
X169176777Y-113926777D01*
X169158598Y-113943253D01*
X169138893Y-113957867D01*
X169117849Y-113970480D01*
X169095671Y-113980970D01*
X169072571Y-113989235D01*
X169048773Y-113995196D01*
X169024504Y-113998796D01*
X169000000Y-114000000D01*
X165575000Y-114000000D01*
X165550496Y-113998796D01*
X165526227Y-113995196D01*
X165502429Y-113989235D01*
X165479329Y-113980970D01*
X165457151Y-113970480D01*
X165436107Y-113957867D01*
X165416402Y-113943253D01*
X165398223Y-113926777D01*
X165381747Y-113908598D01*
X165367133Y-113888893D01*
X165354520Y-113867849D01*
X165344030Y-113845671D01*
X165335765Y-113822571D01*
X165329804Y-113798773D01*
X165326204Y-113774504D01*
X165325000Y-113750000D01*
X165325000Y-112650000D01*
X165326204Y-112625496D01*
X165329804Y-112601227D01*
X165335765Y-112577429D01*
X165344030Y-112554329D01*
X165354520Y-112532151D01*
X165367133Y-112511107D01*
X165381747Y-112491402D01*
X165398223Y-112473223D01*
X165416402Y-112456747D01*
X165436107Y-112442133D01*
X165457151Y-112429520D01*
X165479329Y-112419030D01*
X165502429Y-112410765D01*
X165526227Y-112404804D01*
X165550496Y-112401204D01*
X165575000Y-112400000D01*
X169000000Y-112400000D01*
X169024504Y-112401204D01*
G37*
G04 #@! TD.AperFunction*
G04 #@! TA.AperFunction,SMDPad,CuDef*
G36*
X138179504Y-112401204D02*
G01*
X138203773Y-112404804D01*
X138227571Y-112410765D01*
X138250671Y-112419030D01*
X138272849Y-112429520D01*
X138293893Y-112442133D01*
X138313598Y-112456747D01*
X138331777Y-112473223D01*
X138348253Y-112491402D01*
X138362867Y-112511107D01*
X138375480Y-112532151D01*
X138385970Y-112554329D01*
X138394235Y-112577429D01*
X138400196Y-112601227D01*
X138403796Y-112625496D01*
X138405000Y-112650000D01*
X138405000Y-113750000D01*
X138403796Y-113774504D01*
X138400196Y-113798773D01*
X138394235Y-113822571D01*
X138385970Y-113845671D01*
X138375480Y-113867849D01*
X138362867Y-113888893D01*
X138348253Y-113908598D01*
X138331777Y-113926777D01*
X138313598Y-113943253D01*
X138293893Y-113957867D01*
X138272849Y-113970480D01*
X138250671Y-113980970D01*
X138227571Y-113989235D01*
X138203773Y-113995196D01*
X138179504Y-113998796D01*
X138155000Y-114000000D01*
X134730000Y-114000000D01*
X134705496Y-113998796D01*
X134681227Y-113995196D01*
X134657429Y-113989235D01*
X134634329Y-113980970D01*
X134612151Y-113970480D01*
X134591107Y-113957867D01*
X134571402Y-113943253D01*
X134553223Y-113926777D01*
X134536747Y-113908598D01*
X134522133Y-113888893D01*
X134509520Y-113867849D01*
X134499030Y-113845671D01*
X134490765Y-113822571D01*
X134484804Y-113798773D01*
X134481204Y-113774504D01*
X134480000Y-113750000D01*
X134480000Y-112650000D01*
X134481204Y-112625496D01*
X134484804Y-112601227D01*
X134490765Y-112577429D01*
X134499030Y-112554329D01*
X134509520Y-112532151D01*
X134522133Y-112511107D01*
X134536747Y-112491402D01*
X134553223Y-112473223D01*
X134571402Y-112456747D01*
X134591107Y-112442133D01*
X134612151Y-112429520D01*
X134634329Y-112419030D01*
X134657429Y-112410765D01*
X134681227Y-112404804D01*
X134705496Y-112401204D01*
X134730000Y-112400000D01*
X138155000Y-112400000D01*
X138179504Y-112401204D01*
G37*
G04 #@! TD.AperFunction*
G04 #@! TA.AperFunction,SMDPad,CuDef*
G36*
X144354504Y-112401204D02*
G01*
X144378773Y-112404804D01*
X144402571Y-112410765D01*
X144425671Y-112419030D01*
X144447849Y-112429520D01*
X144468893Y-112442133D01*
X144488598Y-112456747D01*
X144506777Y-112473223D01*
X144523253Y-112491402D01*
X144537867Y-112511107D01*
X144550480Y-112532151D01*
X144560970Y-112554329D01*
X144569235Y-112577429D01*
X144575196Y-112601227D01*
X144578796Y-112625496D01*
X144580000Y-112650000D01*
X144580000Y-113750000D01*
X144578796Y-113774504D01*
X144575196Y-113798773D01*
X144569235Y-113822571D01*
X144560970Y-113845671D01*
X144550480Y-113867849D01*
X144537867Y-113888893D01*
X144523253Y-113908598D01*
X144506777Y-113926777D01*
X144488598Y-113943253D01*
X144468893Y-113957867D01*
X144447849Y-113970480D01*
X144425671Y-113980970D01*
X144402571Y-113989235D01*
X144378773Y-113995196D01*
X144354504Y-113998796D01*
X144330000Y-114000000D01*
X140905000Y-114000000D01*
X140880496Y-113998796D01*
X140856227Y-113995196D01*
X140832429Y-113989235D01*
X140809329Y-113980970D01*
X140787151Y-113970480D01*
X140766107Y-113957867D01*
X140746402Y-113943253D01*
X140728223Y-113926777D01*
X140711747Y-113908598D01*
X140697133Y-113888893D01*
X140684520Y-113867849D01*
X140674030Y-113845671D01*
X140665765Y-113822571D01*
X140659804Y-113798773D01*
X140656204Y-113774504D01*
X140655000Y-113750000D01*
X140655000Y-112650000D01*
X140656204Y-112625496D01*
X140659804Y-112601227D01*
X140665765Y-112577429D01*
X140674030Y-112554329D01*
X140684520Y-112532151D01*
X140697133Y-112511107D01*
X140711747Y-112491402D01*
X140728223Y-112473223D01*
X140746402Y-112456747D01*
X140766107Y-112442133D01*
X140787151Y-112429520D01*
X140809329Y-112419030D01*
X140832429Y-112410765D01*
X140856227Y-112404804D01*
X140880496Y-112401204D01*
X140905000Y-112400000D01*
X144330000Y-112400000D01*
X144354504Y-112401204D01*
G37*
G04 #@! TD.AperFunction*
G04 #@! TA.AperFunction,SMDPad,CuDef*
G36*
X111659504Y-112401204D02*
G01*
X111683773Y-112404804D01*
X111707571Y-112410765D01*
X111730671Y-112419030D01*
X111752849Y-112429520D01*
X111773893Y-112442133D01*
X111793598Y-112456747D01*
X111811777Y-112473223D01*
X111828253Y-112491402D01*
X111842867Y-112511107D01*
X111855480Y-112532151D01*
X111865970Y-112554329D01*
X111874235Y-112577429D01*
X111880196Y-112601227D01*
X111883796Y-112625496D01*
X111885000Y-112650000D01*
X111885000Y-113750000D01*
X111883796Y-113774504D01*
X111880196Y-113798773D01*
X111874235Y-113822571D01*
X111865970Y-113845671D01*
X111855480Y-113867849D01*
X111842867Y-113888893D01*
X111828253Y-113908598D01*
X111811777Y-113926777D01*
X111793598Y-113943253D01*
X111773893Y-113957867D01*
X111752849Y-113970480D01*
X111730671Y-113980970D01*
X111707571Y-113989235D01*
X111683773Y-113995196D01*
X111659504Y-113998796D01*
X111635000Y-114000000D01*
X108210000Y-114000000D01*
X108185496Y-113998796D01*
X108161227Y-113995196D01*
X108137429Y-113989235D01*
X108114329Y-113980970D01*
X108092151Y-113970480D01*
X108071107Y-113957867D01*
X108051402Y-113943253D01*
X108033223Y-113926777D01*
X108016747Y-113908598D01*
X108002133Y-113888893D01*
X107989520Y-113867849D01*
X107979030Y-113845671D01*
X107970765Y-113822571D01*
X107964804Y-113798773D01*
X107961204Y-113774504D01*
X107960000Y-113750000D01*
X107960000Y-112650000D01*
X107961204Y-112625496D01*
X107964804Y-112601227D01*
X107970765Y-112577429D01*
X107979030Y-112554329D01*
X107989520Y-112532151D01*
X108002133Y-112511107D01*
X108016747Y-112491402D01*
X108033223Y-112473223D01*
X108051402Y-112456747D01*
X108071107Y-112442133D01*
X108092151Y-112429520D01*
X108114329Y-112419030D01*
X108137429Y-112410765D01*
X108161227Y-112404804D01*
X108185496Y-112401204D01*
X108210000Y-112400000D01*
X111635000Y-112400000D01*
X111659504Y-112401204D01*
G37*
G04 #@! TD.AperFunction*
G04 #@! TA.AperFunction,SMDPad,CuDef*
G36*
X117834504Y-112401204D02*
G01*
X117858773Y-112404804D01*
X117882571Y-112410765D01*
X117905671Y-112419030D01*
X117927849Y-112429520D01*
X117948893Y-112442133D01*
X117968598Y-112456747D01*
X117986777Y-112473223D01*
X118003253Y-112491402D01*
X118017867Y-112511107D01*
X118030480Y-112532151D01*
X118040970Y-112554329D01*
X118049235Y-112577429D01*
X118055196Y-112601227D01*
X118058796Y-112625496D01*
X118060000Y-112650000D01*
X118060000Y-113750000D01*
X118058796Y-113774504D01*
X118055196Y-113798773D01*
X118049235Y-113822571D01*
X118040970Y-113845671D01*
X118030480Y-113867849D01*
X118017867Y-113888893D01*
X118003253Y-113908598D01*
X117986777Y-113926777D01*
X117968598Y-113943253D01*
X117948893Y-113957867D01*
X117927849Y-113970480D01*
X117905671Y-113980970D01*
X117882571Y-113989235D01*
X117858773Y-113995196D01*
X117834504Y-113998796D01*
X117810000Y-114000000D01*
X114385000Y-114000000D01*
X114360496Y-113998796D01*
X114336227Y-113995196D01*
X114312429Y-113989235D01*
X114289329Y-113980970D01*
X114267151Y-113970480D01*
X114246107Y-113957867D01*
X114226402Y-113943253D01*
X114208223Y-113926777D01*
X114191747Y-113908598D01*
X114177133Y-113888893D01*
X114164520Y-113867849D01*
X114154030Y-113845671D01*
X114145765Y-113822571D01*
X114139804Y-113798773D01*
X114136204Y-113774504D01*
X114135000Y-113750000D01*
X114135000Y-112650000D01*
X114136204Y-112625496D01*
X114139804Y-112601227D01*
X114145765Y-112577429D01*
X114154030Y-112554329D01*
X114164520Y-112532151D01*
X114177133Y-112511107D01*
X114191747Y-112491402D01*
X114208223Y-112473223D01*
X114226402Y-112456747D01*
X114246107Y-112442133D01*
X114267151Y-112429520D01*
X114289329Y-112419030D01*
X114312429Y-112410765D01*
X114336227Y-112404804D01*
X114360496Y-112401204D01*
X114385000Y-112400000D01*
X117810000Y-112400000D01*
X117834504Y-112401204D01*
G37*
G04 #@! TD.AperFunction*
D18*
X178550000Y-62630000D03*
X176010000Y-62630000D03*
X173470000Y-62630000D03*
X170930000Y-62630000D03*
X168390000Y-62630000D03*
X165850000Y-62630000D03*
X163310000Y-62630000D03*
X160770000Y-62630000D03*
D19*
X95390000Y-106345000D03*
X95390000Y-103805000D03*
X95390000Y-101265000D03*
X95390000Y-98725000D03*
X95390000Y-96185000D03*
X95390000Y-93645000D03*
X95390000Y-91105000D03*
X95390000Y-88565000D03*
X183380000Y-113030000D03*
X183380000Y-110490000D03*
X183380000Y-107950000D03*
X183380000Y-105410000D03*
D20*
X133600000Y-97648460D03*
X133600000Y-92190000D03*
X136140000Y-97648460D03*
X136140000Y-92190000D03*
X138680000Y-97648460D03*
X138680000Y-92190000D03*
X123280000Y-97663460D03*
X123280000Y-92205000D03*
X125820000Y-97663460D03*
X125820000Y-92205000D03*
X128360000Y-97663460D03*
X128360000Y-92205000D03*
X113750000Y-97648460D03*
X113750000Y-92190000D03*
X116290000Y-97648460D03*
X116290000Y-92190000D03*
X118830000Y-97648460D03*
X118830000Y-92190000D03*
D10*
X180749000Y-76680000D03*
X184051000Y-76680000D03*
D12*
X153530000Y-73339000D03*
X153530000Y-76641000D03*
D10*
X184051000Y-73686292D03*
X180749000Y-73686292D03*
X165051000Y-75070000D03*
X161749000Y-75070000D03*
X184051000Y-70692586D03*
X180749000Y-70692586D03*
D21*
X107690000Y-48650000D03*
X110230000Y-48650000D03*
X112770000Y-48650000D03*
X115310000Y-48650000D03*
X117850000Y-48650000D03*
X120390000Y-48650000D03*
X122930000Y-48650000D03*
X125470000Y-48650000D03*
X128010000Y-48650000D03*
X130550000Y-48650000D03*
X133090000Y-48650000D03*
X135630000Y-48650000D03*
D22*
X135630000Y-60490000D03*
X135630000Y-63030000D03*
X135630000Y-65570000D03*
X135630000Y-68110000D03*
X135630000Y-70650000D03*
X135630000Y-73190000D03*
X135630000Y-75730000D03*
X135630000Y-78270000D03*
X135630000Y-80810000D03*
D21*
X135630000Y-84450000D03*
X133090000Y-84450000D03*
X130550000Y-84450000D03*
X128010000Y-84450000D03*
X125470000Y-84450000D03*
X122930000Y-84450000D03*
X120390000Y-84450000D03*
X117850000Y-84450000D03*
X115310000Y-84450000D03*
X112770000Y-84450000D03*
X110230000Y-84450000D03*
X107690000Y-84450000D03*
X105150000Y-84450000D03*
D18*
X159900000Y-125110000D03*
X162440000Y-125110000D03*
X164980000Y-125110000D03*
X167520000Y-125110000D03*
X135810000Y-125120000D03*
X138350000Y-125120000D03*
X140890000Y-125120000D03*
X143430000Y-125120000D03*
X108410000Y-125220000D03*
X110950000Y-125220000D03*
X113490000Y-125220000D03*
X116030000Y-125220000D03*
D23*
X165998460Y-81610000D03*
X160540000Y-81610000D03*
X165998460Y-79070000D03*
X160540000Y-79070000D03*
D18*
X181100000Y-62620000D03*
X183640000Y-62620000D03*
X160770000Y-47440000D03*
X163310000Y-47440000D03*
X165850000Y-47440000D03*
X168390000Y-47440000D03*
X170930000Y-47440000D03*
X173470000Y-47440000D03*
X176010000Y-47440000D03*
X178550000Y-47440000D03*
X181090000Y-47440000D03*
X183630000Y-47440000D03*
D24*
X174540000Y-89860000D03*
D25*
X177340000Y-94660000D03*
D26*
X171540000Y-94660000D03*
D27*
X183090000Y-81350000D03*
D28*
X172930000Y-81350000D03*
X172860000Y-85380000D03*
D27*
X183020000Y-85380000D03*
D12*
X147440000Y-73179000D03*
X147440000Y-76481000D03*
D29*
X143415000Y-76850000D03*
X144065000Y-76850000D03*
X144715000Y-76850000D03*
X145365000Y-76850000D03*
X145365000Y-73450000D03*
X144715000Y-73450000D03*
X144065000Y-73450000D03*
X143415000Y-73450000D03*
D30*
X110170000Y-115490000D03*
X136630000Y-115560000D03*
X161140000Y-116170000D03*
X176214000Y-103726000D03*
X178550000Y-73040000D03*
X168730000Y-78107552D03*
X154275604Y-60255604D03*
X141450000Y-77720000D03*
X141460000Y-72110000D03*
X98449500Y-97320500D03*
X98449500Y-105209500D03*
X150370000Y-71830000D03*
X148810000Y-60060000D03*
X127880000Y-72860000D03*
X178940000Y-110430000D03*
X173239999Y-117430001D03*
X117420000Y-115870000D03*
X144150000Y-115810000D03*
X168140000Y-116230000D03*
X163740000Y-111550000D03*
X139830000Y-76230000D03*
X139840000Y-62860000D03*
X156800000Y-75460000D03*
X178770000Y-76580000D03*
X144710000Y-79070000D03*
X141850000Y-66760000D03*
X138840000Y-66780000D03*
X111640000Y-61570000D03*
X111843603Y-53436397D03*
X123300000Y-52970000D03*
X154240414Y-66890414D03*
X152650000Y-65030000D03*
X147390000Y-74850000D03*
X163440000Y-74260000D03*
X102570000Y-84330000D03*
X181290000Y-67290000D03*
D31*
X110170000Y-113447500D02*
X109922500Y-113200000D01*
X110170000Y-115490000D02*
X110170000Y-113447500D01*
X136630000Y-113587500D02*
X136442500Y-113400000D01*
X136630000Y-115560000D02*
X136630000Y-113587500D01*
X161140000Y-113627500D02*
X161112500Y-113600000D01*
X109862500Y-113140000D02*
X109922500Y-113200000D01*
X161112500Y-116142500D02*
X161140000Y-116170000D01*
X161112500Y-113600000D02*
X161112500Y-116142500D01*
X177330000Y-104842000D02*
X176214000Y-103726000D01*
X168390000Y-63392000D02*
X169952000Y-64954000D01*
X171908000Y-64954000D02*
X173470000Y-63392000D01*
X169952000Y-64954000D02*
X171908000Y-64954000D01*
X168390000Y-62630000D02*
X168390000Y-63392000D01*
X176988000Y-64954000D02*
X178550000Y-63392000D01*
X175032000Y-64954000D02*
X176988000Y-64954000D01*
X173470000Y-63392000D02*
X175032000Y-64954000D01*
X173470000Y-62630000D02*
X173470000Y-63392000D01*
X178550000Y-63392000D02*
X178550000Y-62630000D01*
X169952000Y-49764000D02*
X171908000Y-49764000D01*
X168390000Y-48202000D02*
X169952000Y-49764000D01*
X171908000Y-49764000D02*
X173470000Y-48202000D01*
X175032000Y-49764000D02*
X176988000Y-49764000D01*
X173470000Y-48202000D02*
X175032000Y-49764000D01*
X176988000Y-49764000D02*
X178550000Y-48202000D01*
X173470000Y-47440000D02*
X173470000Y-48202000D01*
X183630000Y-48202000D02*
X183630000Y-47440000D01*
X182068000Y-49764000D02*
X183630000Y-48202000D01*
X180112000Y-49764000D02*
X182068000Y-49764000D01*
X178550000Y-48202000D02*
X180112000Y-49764000D01*
X178550000Y-47440000D02*
X178550000Y-48202000D01*
X166828000Y-49764000D02*
X168390000Y-48202000D01*
X164872000Y-49764000D02*
X166828000Y-49764000D01*
X163310000Y-48202000D02*
X164872000Y-49764000D01*
X168390000Y-48202000D02*
X168390000Y-47440000D01*
X163310000Y-47440000D02*
X163310000Y-48202000D01*
X173470000Y-62630000D02*
X173470000Y-47440000D01*
X183380000Y-113030000D02*
X177370000Y-113030000D01*
X177370000Y-113030000D02*
X177360000Y-113040000D01*
X177007491Y-64973491D02*
X176988000Y-64954000D01*
X168390000Y-60306000D02*
X168390000Y-62630000D01*
X164793980Y-56709980D02*
X168390000Y-60306000D01*
X113449980Y-56709980D02*
X164793980Y-56709980D01*
X107690000Y-50950000D02*
X113449980Y-56709980D01*
X107690000Y-48650000D02*
X107690000Y-50950000D01*
X178550000Y-73040000D02*
X180102708Y-73040000D01*
X180102708Y-73040000D02*
X180749000Y-73686292D01*
X171151620Y-68272580D02*
X172450730Y-68272580D01*
X172450730Y-68272580D02*
X174198150Y-70020000D01*
X176698902Y-70020000D02*
X177007491Y-69711411D01*
X174198150Y-70020000D02*
X176698902Y-70020000D01*
X177007491Y-69711411D02*
X177007491Y-64973491D01*
D32*
X171151620Y-70004380D02*
X171151620Y-69471410D01*
X165051000Y-75070000D02*
X166086000Y-75070000D01*
X171151620Y-69471410D02*
X171151620Y-68272580D01*
X166086000Y-75070000D02*
X171151620Y-70004380D01*
D31*
X166486000Y-75070000D02*
X168730000Y-77314000D01*
X168730000Y-77314000D02*
X168730000Y-78107552D01*
X165051000Y-75070000D02*
X166486000Y-75070000D01*
X98449500Y-100129500D02*
X97314000Y-101265000D01*
X97314000Y-101265000D02*
X95390000Y-101265000D01*
X98449500Y-97320500D02*
X98449500Y-100129500D01*
X97314000Y-106345000D02*
X98449500Y-105209500D01*
X95390000Y-106345000D02*
X97314000Y-106345000D01*
X98449500Y-105209500D02*
X98449500Y-100129500D01*
X98449500Y-92240500D02*
X98449500Y-96754815D01*
X95390000Y-91105000D02*
X97314000Y-91105000D01*
X97314000Y-91105000D02*
X98449500Y-92240500D01*
X98449500Y-96754815D02*
X98449500Y-97320500D01*
X141450000Y-77720000D02*
X141460000Y-72110000D01*
D32*
X153212500Y-76641000D02*
X153530000Y-76641000D01*
X155152010Y-76371490D02*
X154882500Y-76641000D01*
X155152010Y-61132010D02*
X155152010Y-76371490D01*
X154882500Y-76641000D02*
X153530000Y-76641000D01*
X154275604Y-60255604D02*
X155152010Y-61132010D01*
D33*
X141849999Y-78119999D02*
X141450000Y-77720000D01*
X144065000Y-76850000D02*
X144065000Y-77850000D01*
X143795001Y-78119999D02*
X141849999Y-78119999D01*
X144065000Y-77850000D02*
X143795001Y-78119999D01*
D32*
X147757500Y-76481000D02*
X149308500Y-74930000D01*
X147440000Y-76481000D02*
X147757500Y-76481000D01*
X149308500Y-74930000D02*
X150260000Y-74930000D01*
X150680000Y-74510000D02*
X150680000Y-73339000D01*
X150260000Y-74930000D02*
X150680000Y-74510000D01*
X150680000Y-74374000D02*
X150866000Y-74560000D01*
X150680000Y-73339000D02*
X150680000Y-74374000D01*
X153530000Y-75606000D02*
X153530000Y-76641000D01*
X152484000Y-74560000D02*
X153530000Y-75606000D01*
X150866000Y-74560000D02*
X152484000Y-74560000D01*
D31*
X150370000Y-73029000D02*
X150680000Y-73339000D01*
X150370000Y-71830000D02*
X150370000Y-73029000D01*
X163922930Y-109670000D02*
X177140000Y-109670000D01*
X161112500Y-113600000D02*
X161112500Y-112480430D01*
X177320000Y-109490000D02*
X177330000Y-104842000D01*
X177140000Y-109670000D02*
X177320000Y-109490000D01*
X161112500Y-112480430D02*
X163922930Y-109670000D01*
X177360000Y-113040000D02*
X177320000Y-109490000D01*
D32*
X97314000Y-91105000D02*
X98190000Y-90229000D01*
X95859000Y-82552500D02*
X95859000Y-81200000D01*
X98190000Y-84883500D02*
X95859000Y-82552500D01*
X98190000Y-90229000D02*
X98190000Y-84883500D01*
X138150000Y-58910000D02*
X133510000Y-58910000D01*
X127880000Y-64540000D02*
X127880000Y-72860000D01*
X133510000Y-58910000D02*
X127880000Y-64540000D01*
X139300000Y-60060000D02*
X138150000Y-58910000D01*
X148810000Y-60060000D02*
X139300000Y-60060000D01*
X148810000Y-60130000D02*
X148810000Y-60060000D01*
X148810000Y-68990000D02*
X148810000Y-60130000D01*
D31*
X113130000Y-92190000D02*
X113750000Y-92190000D01*
X107690000Y-86750000D02*
X113130000Y-92190000D01*
X107690000Y-84450000D02*
X107690000Y-86750000D01*
X132631369Y-117929999D02*
X133270000Y-118568630D01*
X105940000Y-119630000D02*
X107540001Y-118029999D01*
X113750000Y-92190000D02*
X121170000Y-92190000D01*
X121170000Y-92190000D02*
X138680000Y-92190000D01*
X157340000Y-118568630D02*
X157340000Y-119700000D01*
X155961370Y-117190000D02*
X157340000Y-118568630D01*
X133270000Y-119700000D02*
X135770000Y-117200000D01*
X158478629Y-117430001D02*
X173239999Y-117430001D01*
X157340000Y-118568630D02*
X158478629Y-117430001D01*
X183320000Y-110430000D02*
X183380000Y-110490000D01*
X178940000Y-110430000D02*
X183320000Y-110430000D01*
D32*
X148810000Y-70774000D02*
X148810000Y-70260000D01*
X148810000Y-70260000D02*
X148810000Y-68990000D01*
X147440000Y-72144000D02*
X148810000Y-70774000D01*
X147440000Y-73179000D02*
X147440000Y-72144000D01*
X144171000Y-72144000D02*
X147440000Y-72144000D01*
X144065000Y-72250000D02*
X144171000Y-72144000D01*
X144065000Y-73450000D02*
X144065000Y-72250000D01*
D31*
X132631369Y-117929999D02*
X132179999Y-117929999D01*
X132179999Y-117929999D02*
X125240000Y-110990000D01*
X125240000Y-104630000D02*
X121120000Y-100510000D01*
X125240000Y-110990000D02*
X125240000Y-104630000D01*
X121170000Y-92190000D02*
X121120000Y-100510000D01*
X133270000Y-118568630D02*
X133270000Y-119700000D01*
X132731369Y-118029999D02*
X133270000Y-118568630D01*
X107540001Y-118029999D02*
X132731369Y-118029999D01*
X155951370Y-117200000D02*
X155961370Y-117190000D01*
X135770000Y-117200000D02*
X155951370Y-117200000D01*
X170090000Y-106950000D02*
X170040000Y-107000000D01*
D32*
X169240001Y-106200001D02*
X170040000Y-107000000D01*
X138680000Y-99980000D02*
X141009962Y-99980000D01*
X141009962Y-99980000D02*
X143779942Y-102749980D01*
X165789980Y-102749980D02*
X169240001Y-106200001D01*
X143779942Y-102749980D02*
X165789980Y-102749980D01*
X138680000Y-97648460D02*
X138680000Y-99980000D01*
X166700001Y-106200001D02*
X167500000Y-107000000D01*
X163949990Y-103449990D02*
X166700001Y-106200001D01*
X143489990Y-103449990D02*
X163949990Y-103449990D01*
X141899980Y-101859980D02*
X143489990Y-103449990D01*
X136140000Y-97648460D02*
X136140000Y-99318460D01*
X138681520Y-101859980D02*
X141899980Y-101859980D01*
X136140000Y-99318460D02*
X138681520Y-101859980D01*
D31*
X165010000Y-106950000D02*
X164960000Y-107000000D01*
D32*
X136841530Y-102559990D02*
X133600000Y-99318460D01*
X141069990Y-102559990D02*
X136841530Y-102559990D01*
X162110000Y-104150000D02*
X142660000Y-104150000D01*
X133600000Y-99318460D02*
X133600000Y-97648460D01*
X142660000Y-104150000D02*
X141069990Y-102559990D01*
X164960000Y-107000000D02*
X162110000Y-104150000D01*
D31*
X116097500Y-114547500D02*
X117420000Y-115870000D01*
X116097500Y-113200000D02*
X116097500Y-114547500D01*
X142617500Y-113400000D02*
X142617500Y-114200000D01*
X144127500Y-115787500D02*
X144150000Y-115810000D01*
X168140000Y-114452500D02*
X167287500Y-113600000D01*
X168140000Y-116230000D02*
X168140000Y-114452500D01*
X167287500Y-112800000D02*
X166037500Y-111550000D01*
X167287500Y-113600000D02*
X167287500Y-112800000D01*
X166037500Y-111550000D02*
X163740000Y-111550000D01*
X142617500Y-114277500D02*
X144150000Y-115810000D01*
X142617500Y-113400000D02*
X142617500Y-114277500D01*
X140900000Y-119710000D02*
X140890000Y-119700000D01*
D32*
X129841540Y-104860000D02*
X123280000Y-98298460D01*
X140890000Y-105868630D02*
X139881370Y-104860000D01*
X123280000Y-98298460D02*
X123280000Y-97663460D01*
X139881370Y-104860000D02*
X129841540Y-104860000D01*
X140890000Y-107000000D02*
X140890000Y-105868630D01*
X130446550Y-103960010D02*
X140390010Y-103960010D01*
X125820000Y-99333460D02*
X130446550Y-103960010D01*
X140390010Y-103960010D02*
X143430000Y-107000000D01*
X125820000Y-97663460D02*
X125820000Y-99333460D01*
X143990000Y-105020000D02*
X145970000Y-107000000D01*
X132286540Y-103260000D02*
X140679963Y-103260000D01*
X140679963Y-103260000D02*
X142439963Y-105020000D01*
X142439963Y-105020000D02*
X143990000Y-105020000D01*
X128360000Y-99333460D02*
X132286540Y-103260000D01*
X128360000Y-97663460D02*
X128360000Y-99333460D01*
D31*
X118590000Y-106880000D02*
X118640000Y-106930000D01*
D32*
X118830000Y-104620000D02*
X118830000Y-97648460D01*
X118830000Y-105608630D02*
X118830000Y-104620000D01*
X118640000Y-105798630D02*
X118830000Y-105608630D01*
X118640000Y-106930000D02*
X118640000Y-105798630D01*
D31*
X116050000Y-106880000D02*
X116100000Y-106930000D01*
D32*
X116290000Y-100430000D02*
X116290000Y-97648460D01*
X116100000Y-100620000D02*
X116100000Y-106930000D01*
X116290000Y-100430000D02*
X116100000Y-100620000D01*
D31*
X113510000Y-106880000D02*
X113560000Y-106930000D01*
D32*
X113750000Y-97648460D02*
X113750000Y-100340000D01*
X113750000Y-105608630D02*
X113750000Y-100340000D01*
X113560000Y-105798630D02*
X113750000Y-105608630D01*
X113560000Y-106930000D02*
X113560000Y-105798630D01*
D31*
X113570000Y-119640000D02*
X113560000Y-119630000D01*
D32*
X139830000Y-65780000D02*
X139830000Y-76230000D01*
X139840000Y-62860000D02*
X139830000Y-65780000D01*
X115310000Y-84450000D02*
X115310000Y-83712000D01*
D31*
X178770000Y-76580000D02*
X180649000Y-76580000D01*
X180649000Y-76580000D02*
X180749000Y-76680000D01*
X111768150Y-57909990D02*
X153905992Y-57909990D01*
X153905992Y-57909990D02*
X156800000Y-60803998D01*
X156800000Y-60803998D02*
X156800000Y-75460000D01*
X100168140Y-69890000D02*
X98768700Y-69890000D01*
X111768150Y-58289990D02*
X100168140Y-69890000D01*
X111768150Y-57909990D02*
X111768150Y-58289990D01*
X180749000Y-85009000D02*
X181120000Y-85380000D01*
X181120000Y-85380000D02*
X183020000Y-85380000D01*
X180749000Y-76680000D02*
X180749000Y-85009000D01*
X183070000Y-100702000D02*
X183020000Y-85380000D01*
X179220000Y-104552000D02*
X183070000Y-100702000D01*
X182618000Y-107950000D02*
X179220000Y-104552000D01*
X183380000Y-107950000D02*
X182618000Y-107950000D01*
D33*
X144715000Y-78499315D02*
X144715000Y-76850000D01*
X144710000Y-78504315D02*
X144710000Y-79070000D01*
D34*
X144715000Y-78499315D02*
X144710000Y-78504315D01*
D32*
X151100000Y-69240000D02*
X151350000Y-68990000D01*
X151150000Y-68790000D02*
X151350000Y-68990000D01*
X153212500Y-73339000D02*
X153530000Y-73339000D01*
X151350000Y-71476500D02*
X153212500Y-73339000D01*
X151350000Y-68990000D02*
X151350000Y-71476500D01*
D33*
X143415000Y-72350000D02*
X143415000Y-73450000D01*
X141850000Y-70785000D02*
X143415000Y-72350000D01*
X141850000Y-66760000D02*
X141850000Y-70785000D01*
D32*
X137530000Y-60490000D02*
X135630000Y-60490000D01*
X138840000Y-66780000D02*
X138840000Y-62030000D01*
X138840000Y-62030000D02*
X137530000Y-60490000D01*
X146270000Y-80420000D02*
X148663999Y-78026001D01*
X111843603Y-53436397D02*
X111843603Y-52546397D01*
X112770000Y-51620000D02*
X112770000Y-48650000D01*
X111843603Y-52546397D02*
X112770000Y-51620000D01*
X137450000Y-82280000D02*
X131850000Y-82290000D01*
X139710000Y-84270000D02*
X137450000Y-82280000D01*
X131850000Y-82290000D02*
X111640000Y-61830000D01*
X144960000Y-84270000D02*
X139710000Y-84270000D01*
X111640000Y-61830000D02*
X111640000Y-61570000D01*
X146270000Y-82960000D02*
X144960000Y-84270000D01*
X146270000Y-81690000D02*
X146270000Y-82960000D01*
X150530000Y-77826000D02*
X150530000Y-78030000D01*
X150680000Y-77676000D02*
X150530000Y-77826000D01*
X150680000Y-76641000D02*
X150680000Y-77676000D01*
X148663999Y-78026001D02*
X150530000Y-78030000D01*
D33*
X146270000Y-80420000D02*
X146270000Y-81690000D01*
X146037499Y-80187499D02*
X146270000Y-80420000D01*
X146037499Y-75882501D02*
X146037499Y-80187499D01*
X144715000Y-74560002D02*
X146037499Y-75882501D01*
X144715000Y-73450000D02*
X144715000Y-74560002D01*
D32*
X155931069Y-78026001D02*
X150530000Y-78030000D01*
X158580000Y-75377070D02*
X155931069Y-78026001D01*
X158560000Y-73400000D02*
X158580000Y-73420000D01*
X158580000Y-73420000D02*
X158580000Y-75377070D01*
X160770000Y-62630000D02*
X160770000Y-64954000D01*
X158560000Y-67164000D02*
X158560000Y-73400000D01*
X160770000Y-64954000D02*
X158560000Y-67164000D01*
X170930000Y-60706000D02*
X170930000Y-62630000D01*
X163194000Y-52970000D02*
X170930000Y-60706000D01*
X123300000Y-52970000D02*
X163194000Y-52970000D01*
X152650000Y-65030000D02*
X154240414Y-66890414D01*
D31*
X173720000Y-75280000D02*
X173430000Y-75570000D01*
X173430000Y-75169950D02*
X177907364Y-70692586D01*
X179314000Y-70692586D02*
X180749000Y-70692586D01*
X173430000Y-75570000D02*
X173430000Y-75169950D01*
X178450000Y-70690000D02*
X179314000Y-70692586D01*
X177907364Y-70692586D02*
X178450000Y-70690000D01*
X178470000Y-69360000D02*
X177907364Y-70692586D01*
X178470000Y-66140000D02*
X178470000Y-69360000D01*
X181100000Y-64944000D02*
X178470000Y-66140000D01*
X181100000Y-62620000D02*
X181100000Y-64944000D01*
X160540000Y-76279000D02*
X161749000Y-75070000D01*
X160540000Y-79070000D02*
X160540000Y-76279000D01*
X161749000Y-73317500D02*
X168392751Y-66673749D01*
X161749000Y-75070000D02*
X161749000Y-73317500D01*
X174409270Y-66673750D02*
X175708380Y-67972860D01*
X168392751Y-66673749D02*
X174409270Y-66673750D01*
X175708380Y-67972860D02*
X175708380Y-68272580D01*
D32*
X165998460Y-79070000D02*
X165998460Y-81610000D01*
D31*
X151350000Y-81690000D02*
X151350000Y-82960000D01*
X152050010Y-83660010D02*
X165383450Y-83660010D01*
X165383450Y-83660010D02*
X165998460Y-83045000D01*
X151350000Y-82960000D02*
X152050010Y-83660010D01*
X165998460Y-83045000D02*
X165998460Y-81610000D01*
D33*
X145365000Y-74245000D02*
X145970000Y-74850000D01*
X145365000Y-73450000D02*
X145365000Y-74245000D01*
X145970000Y-74850000D02*
X147390000Y-74850000D01*
X164428460Y-79070000D02*
X165998460Y-79070000D01*
X163440000Y-78081540D02*
X164428460Y-79070000D01*
X163440000Y-74260000D02*
X163440000Y-78081540D01*
D31*
X102570000Y-83764315D02*
X102570000Y-84330000D01*
X102570000Y-74791220D02*
X102570000Y-83764315D01*
X100168140Y-72389360D02*
X102570000Y-74791220D01*
X98768700Y-72389360D02*
X100168140Y-72389360D01*
D32*
X98768700Y-73787800D02*
X98768700Y-72389360D01*
X95859000Y-76697500D02*
X98768700Y-73787800D01*
X95859000Y-78050000D02*
X95859000Y-76697500D01*
D31*
X184051000Y-76680000D02*
X184051000Y-73686292D01*
D32*
X158370000Y-76577032D02*
X159680000Y-75267032D01*
X158370000Y-81110000D02*
X158370000Y-76577032D01*
X160540000Y-81610000D02*
X158870000Y-81610000D01*
X165850000Y-64554000D02*
X165850000Y-62630000D01*
X159680000Y-70724000D02*
X165850000Y-64554000D01*
X159680000Y-75267032D02*
X159680000Y-70724000D01*
X158870000Y-81610000D02*
X158370000Y-81110000D01*
D31*
X181290000Y-67290000D02*
X183030000Y-67290000D01*
X184051000Y-68311000D02*
X184051000Y-70692586D01*
X183030000Y-67290000D02*
X184051000Y-68311000D01*
X150082000Y-85380000D02*
X147750000Y-87712000D01*
X172860000Y-85380000D02*
X150082000Y-85380000D01*
D32*
X99161000Y-78050000D02*
X99161000Y-81200000D01*
M02*
