G04 #@! TF.GenerationSoftware,KiCad,Pcbnew,(5.1.5-0-10_14)*
G04 #@! TF.CreationDate,2020-05-25T11:32:10+02:00*
G04 #@! TF.ProjectId,BarduinoStepperBoard,42617264-7569-46e6-9f53-746570706572,rev?*
G04 #@! TF.SameCoordinates,Original*
G04 #@! TF.FileFunction,Profile,NP*
%FSLAX46Y46*%
G04 Gerber Fmt 4.6, Leading zero omitted, Abs format (unit mm)*
G04 Created by KiCad (PCBNEW (5.1.5-0-10_14)) date 2020-05-25 11:32:10*
%MOMM*%
%LPD*%
G04 APERTURE LIST*
%ADD10C,0.050000*%
G04 APERTURE END LIST*
D10*
X100958098Y-122740000D02*
G75*
G03X100958098Y-122740000I-3048098J0D01*
G01*
X183788098Y-122590000D02*
G75*
G03X183788098Y-122590000I-3048098J0D01*
G01*
X100938098Y-50030000D02*
G75*
G03X100938098Y-50030000I-3048098J0D01*
G01*
X93093379Y-45740000D02*
G75*
G02X93580000Y-45253379I486621J0D01*
G01*
X96440135Y-68390000D02*
G75*
G03X96440135Y-68390000I-370135J0D01*
G01*
X96440135Y-71400000D02*
G75*
G03X96440135Y-71400000I-370135J0D01*
G01*
X93090000Y-75480000D02*
X93093379Y-126720000D01*
X93090000Y-64120000D02*
X93093379Y-45740000D01*
X95170433Y-73429999D02*
X95170433Y-66170001D01*
X93090000Y-64120000D02*
G75*
G03X94100000Y-65130000I1010000J0D01*
G01*
X95170433Y-66170001D02*
G75*
G03X94100000Y-65130000I-1040433J1D01*
G01*
X95170433Y-73429999D02*
G75*
G02X94100000Y-74470000I-1040433J-1D01*
G01*
X93090000Y-75480000D02*
G75*
G02X94100000Y-74470000I1010000J0D01*
G01*
X93580000Y-127206621D02*
G75*
G02X93093379Y-126720000I0J486621D01*
G01*
X185750000Y-126720000D02*
G75*
G02X185263379Y-127206621I-486621J0D01*
G01*
X185260000Y-45213379D02*
G75*
G02X185746621Y-45700000I0J-486621D01*
G01*
X93580000Y-45253379D02*
X185260000Y-45213379D01*
X185750000Y-126720000D02*
X185746621Y-45700000D01*
X93580000Y-127206621D02*
X185263379Y-127206621D01*
M02*
